module suah.dev/ts-reverse-proxy

go 1.23.1

toolchain go1.23.4

require tailscale.com v1.80.3

require (
	filippo.io/edwards25519 v1.1.0 // indirect
	github.com/akutz/memconn v0.1.0 // indirect
	github.com/alexbrainman/sspi v0.0.0-20231016080023-1a75b4708caa // indirect
	github.com/aws/aws-sdk-go-v2 v1.24.1 // indirect
	github.com/aws/aws-sdk-go-v2/config v1.26.5 // indirect
	github.com/aws/aws-sdk-go-v2/credentials v1.16.16 // indirect
	github.com/aws/aws-sdk-go-v2/feature/ec2/imds v1.14.11 // indirect
	github.com/aws/aws-sdk-go-v2/internal/configsources v1.2.10 // indirect
	github.com/aws/aws-sdk-go-v2/internal/endpoints/v2 v2.5.10 // indirect
	github.com/aws/aws-sdk-go-v2/internal/ini v1.7.2 // indirect
	github.com/aws/aws-sdk-go-v2/service/internal/accept-encoding v1.10.4 // indirect
	github.com/aws/aws-sdk-go-v2/service/internal/presigned-url v1.10.10 // indirect
	github.com/aws/aws-sdk-go-v2/service/ssm v1.44.7 // indirect
	github.com/aws/aws-sdk-go-v2/service/sso v1.18.7 // indirect
	github.com/aws/aws-sdk-go-v2/service/ssooidc v1.21.7 // indirect
	github.com/aws/aws-sdk-go-v2/service/sts v1.26.7 // indirect
	github.com/aws/smithy-go v1.19.0 // indirect
	github.com/bits-and-blooms/bitset v1.13.0 // indirect
	github.com/coder/websocket v1.8.12 // indirect
	github.com/coreos/go-iptables v0.7.1-0.20240112124308-65c67c9f46e6 // indirect
	github.com/dblohm7/wingoes v0.0.0-20240119213807-a09d6be7affa // indirect
	github.com/digitalocean/go-smbios v0.0.0-20180907143718-390a4f403a8e // indirect
	github.com/fxamacker/cbor/v2 v2.7.0 // indirect
	github.com/gaissmai/bart v0.11.1 // indirect
	github.com/go-json-experiment/json v0.0.0-20250103232110-6a9a0fde9288 // indirect
	github.com/go-ole/go-ole v1.3.0 // indirect
	github.com/godbus/dbus/v5 v5.1.1-0.20230522191255-76236955d466 // indirect
	github.com/golang/groupcache v0.0.0-20210331224755-41bb18bfe9da // indirect
	github.com/google/btree v1.1.2 // indirect
	github.com/google/go-cmp v0.6.0 // indirect
	github.com/google/nftables v0.2.1-0.20240414091927-5e242ec57806 // indirect
	github.com/google/uuid v1.6.0 // indirect
	github.com/gorilla/csrf v1.7.3-0.20250123201450-9dd6af1f6d30 // indirect
	github.com/gorilla/securecookie v1.1.2 // indirect
	github.com/hdevalence/ed25519consensus v0.2.0 // indirect
	github.com/illarion/gonotify/v2 v2.0.3 // indirect
	github.com/insomniacslk/dhcp v0.0.0-20231206064809-8c70d406f6d2 // indirect
	github.com/jmespath/go-jmespath v0.4.0 // indirect
	github.com/jsimonetti/rtnetlink v1.4.0 // indirect
	github.com/klauspost/compress v1.17.11 // indirect
	github.com/kortschak/wol v0.0.0-20200729010619-da482cc4850a // indirect
	github.com/mdlayher/genetlink v1.3.2 // indirect
	github.com/mdlayher/netlink v1.7.3-0.20250113171957-fbb4dce95f42 // indirect
	github.com/mdlayher/sdnotify v1.0.0 // indirect
	github.com/mdlayher/socket v0.5.0 // indirect
	github.com/miekg/dns v1.1.58 // indirect
	github.com/mitchellh/go-ps v1.0.0 // indirect
	github.com/pierrec/lz4/v4 v4.1.21 // indirect
	github.com/prometheus-community/pro-bing v0.4.0 // indirect
	github.com/safchain/ethtool v0.3.0 // indirect
	github.com/tailscale/certstore v0.1.1-0.20231202035212-d3fa0460f47e // indirect
	github.com/tailscale/go-winio v0.0.0-20231025203758-c4f33415bf55 // indirect
	github.com/tailscale/golang-x-crypto v0.0.0-20240604161659-3fde5e568aa4 // indirect
	github.com/tailscale/goupnp v1.0.1-0.20210804011211-c64d0f06ea05 // indirect
	github.com/tailscale/hujson v0.0.0-20221223112325-20486734a56a // indirect
	github.com/tailscale/netlink v1.1.1-0.20240822203006-4d49adab4de7 // indirect
	github.com/tailscale/peercred v0.0.0-20250107143737-35a0c7bd7edc // indirect
	github.com/tailscale/web-client-prebuilt v0.0.0-20250124233751-d4cd19a26976 // indirect
	github.com/tailscale/wireguard-go v0.0.0-20250107165329-0b8b35511f19 // indirect
	github.com/u-root/uio v0.0.0-20240224005618-d2acac8f3701 // indirect
	github.com/vishvananda/netns v0.0.4 // indirect
	github.com/x448/float16 v0.8.4 // indirect
	go4.org/mem v0.0.0-20240501181205-ae6ca9944745 // indirect
	go4.org/netipx v0.0.0-20231129151722-fdeea329fbba // indirect
	golang.org/x/crypto v0.33.0 // indirect
	golang.org/x/exp v0.0.0-20250106191152-7588d65b2ba8 // indirect
	golang.org/x/mod v0.22.0 // indirect
	golang.org/x/net v0.35.0 // indirect
	golang.org/x/sync v0.11.0 // indirect
	golang.org/x/sys v0.30.0 // indirect
	golang.org/x/term v0.29.0 // indirect
	golang.org/x/text v0.22.0 // indirect
	golang.org/x/time v0.9.0 // indirect
	golang.org/x/tools v0.29.0 // indirect
	golang.zx2c4.com/wintun v0.0.0-20230126152724-0fa3db229ce2 // indirect
	golang.zx2c4.com/wireguard/windows v0.5.3 // indirect
	gvisor.dev/gvisor v0.0.0-20240722211153-64c016c92987 // indirect
)
